{
  "info": {
    "name": "WithUProject",
    "description": "API collection for WithUProject",
    "schema": "https://schema.getpostman.com/json/collection/v2.1.0/collection.json"
  },
  "item": [
    {
      "name": "Classifications",
      "item": [
        {
          "name": "Get All Classifications",
          "request": {
            "method": "GET",
            "header": [],
            "url": {
              "raw": "http://127.0.0.1:8000/api/v1/classifications",
              "protocol": "http",
              "host": [
                "127",
                "0",
                "0",
                "1"
              ],
              "port": "8000",
              "path": [
                "api",
                "v1",
                "classifications"
              ]
            }
          }
        },
        {
          "name": "Create a Classification",
          "request": {
            "method": "POST",
            "header": [
              {
                "key": "Content-Type",
                "value": "application/json"
              }
            ],
            "body": {
              "mode": "raw",
              "raw": "{\n    \"name\": \"Example Classification\",\n    \"image\": \"base64_image_string\"\n}"
            },
            "url": {
              "raw": "http://127.0.0.1:8000/api/v1/classifications",
              "protocol": "http",
              "host": [
                "127",
                "0",
                "0",
                "1"
              ],
              "port": "8000",
              "path": [
                "api",
                "v1",
                "classifications"
              ]
            }
          }
        },
        {
          "name": "Get a Classification by ID",
          "request": {
            "method": "GET",
            "header": [],
            "url": {
              "raw": "http://127.0.0.1:8000/api/v1/classifications/:id",
              "protocol": "http",
              "host": [
                "127",
                "0",
                "0",
                "1"
              ],
              "port": "8000",
              "path": [
                "api",
                "v1",
                "classifications",
                ":id"
              ],
              "variable": [
                {
                  "key": "id",
                  "value": "1"
                }
              ]
            }
          }
        },
        {
          "name": "Update a Classification",
          "request": {
            "method": "PUT",
            "header": [
              {
                "key": "Content-Type",
                "value": "application/json"
              }
            ],
            "body": {
              "mode": "raw",
              "raw": "{\n    \"name\": \"Updated Classification\",\n    \"image\": \"base64_image_string\"\n}"
            },
            "url": {
              "raw": "http://127.0.0.1:8000/api/v1/classifications/:id",
              "protocol": "http",
              "host": [
                "127",
                "0",
                "0",
                "1"
              ],
              "port": "8000",
              "path": [
                "api",
                "v1",
                "classifications",
                ":id"
              ],
              "variable": [
                {
                  "key": "id",
                  "value": "1"
                }
              ]
            }
          }
        },
        {
          "name": "Delete a Classification",
          "request": {
            "method": "DELETE",
            "header": [],
            "url": {
              "raw": "http://127.0.0.1:8000/api/v1/classifications/:id",
              "protocol": "http",
              "host": [
                "127",
                "0",
                "0",
                "1"
              ],
              "port": "8000",
              "path": [
                "api",
                "v1",
                "classifications",
                ":id"
              ],
              "variable": [
                {
                  "key": "id",
                  "value": "1"
                }
              ]
            }
          }
        }
      ]
    },
    {
      "name": "Products",
      "item": [
        {
          "name": "Get All Products",
          "request": {
            "method": "GET",
            "header": [],
            "url": {
              "raw": "http://127.0.0.1:8000/api/v1/products",
              "protocol": "http",
              "host": [
                "127",
                "0",
                "0",
                "1"
              ],
              "port": "8000",
              "path": [
                "api",
                "v1",
                "products"
              ]
            }
          }
        },
        {
          "name": "Create a Product",
          "request": {
            "method": "POST",
            "header": [
              {
                "key": "Content-Type",
                "value": "application/json"
              }
            ],
            "body": {
              "mode": "raw",
              "raw": "{\n    \"name\": \"Example Product\",\n    \"price\": 123.45,\n    \"classification_id\": 1,\n    \"images\": [\"base64_image_string1\", \"base64_image_string2\"]\n}"
            },
            "url": {
              "raw": "http://127.0.0.1:8000/api/v1/products",
              "protocol": "http",
              "host": [
                "127",
                "0",
                "0",
                "1"
              ],
              "port": "8000",
              "path": [
                "api",
                "v1",
                "products"
              ]
            }
          }
        },
        {
          "name": "Get a Product by ID",
          "request": {
            "method": "GET",
            "header": [],
            "url": {
              "raw": "http://127.0.0.1:8000/api/v1/products/:id",
              "protocol": "http",
              "host": [
                "127",
                "0",
                "0",
                "1"
              ],
              "port": "8000",
              "path": [
                "api",
                "v1",
                "products",
                ":id"
              ],
              "variable": [
                {
                  "key": "id",
                  "value": "1"
                }
              ]
            }
          }
        },
        {
          "name": "Update a Product",
          "request": {
            "method": "PUT",
            "header": [
              {
                "key": "Content-Type",
                "value": "application/json"
              }
            ],
            "body": {
              "mode": "raw",
              "raw": "{\n    \"name\": \"Updated Product\",\n    \"price\": 123.45,\n    \"classification_id\": 1,\n    \"images\": [\"base64_image_string1\", \"base64_image_string2\"]\n}"
            },
            "url": {
              "raw": "http://127.0.0.1:8000/api/v1/products/:id",
              "protocol": "http",
              "host": [
                "127",
                "0",
                "0",
                "1"
              ],
              "port": "8000",
              "path": [
                "api",
                "v1",
                "products",
                ":id"
              ],
              "variable": [
                {
                  "key": "id",
                  "value": "1"
                }
              ]
            }
          }
        },
        {
          "name": "Delete a Product",
          "request": {
            "method": "DELETE",
            "header": [],
            "url": {
              "raw": "http://127.0.0.1:8000/api/v1/products/:id",
              "protocol": "http",
              "host": [
                "127",
                "0",
                "0",
                "1"
              ],
              "port": "8000",
              "path": [
                "api",
                "v1",
                "products",
                ":id"
              ],
              "variable": [
                {
                  "key": "id",
                  "value": "1"
                }
              ]
            }
          }
        }
      ]
    }
  ]
}
